[gd_scene load_steps=3 format=3 uid="uid://dlw5oedxkeock"]

[ext_resource type="TileSet" uid="uid://b4076d12mpedt" path="res://Track/assets/track_set.tres" id="1_nbwri"]
[ext_resource type="Script" path="res://Track/Track.gd" id="2_k1xlb"]

[node name="UnblinkyTrack" type="TileMap"]
tile_set = ExtResource("1_nbwri")
rendering_quadrant_size = 128
format = 2
layer_0/tile_data = PackedInt32Array(0, 0, 0, 65536, 0, 1, 1, 65536, 0, 65537, 65536, 1, 196615, 196608, 3, 262151, 196608, 4, 196616, 262144, 3, 262152, 262144, 4, 196608, 0, 3, 262144, 0, 4, 196609, 65536, 3, 262145, 65536, 4, 7, 196608, 0, 65543, 196608, 1, 8, 262144, 0, 65544, 262144, 1, 2, 131072, 0, 65538, 131072, 1, 3, 131072, 0, 65539, 131072, 1, 4, 131072, 0, 65540, 131072, 1, 5, 131072, 0, 65541, 131072, 1, 6, 131072, 0, 65542, 131072, 1, 196614, 131072, 0, 262150, 131072, 1, 196610, 131072, 0, 262146, 131072, 1, 196611, 131072, 0, 262147, 131072, 1, 196612, 131072, 0, 262148, 131072, 1, 196613, 131072, 0, 262149, 131072, 1, 131079, 196608, 2, 131080, 262144, 2, 131072, 196608, 2, 131073, 262144, 2, 131074, 131072, 2, 131075, 131072, 2, 131076, 131072, 2, 131077, 131072, 2, 131078, 131072, 2)
script = ExtResource("2_k1xlb")
