; Engine configuration file.
; It's best edited using the editor UI and not directly,
; since the parameters that go here are not all obvious.
;
; Format:
;   [section] ; section goes between []
;   param=value ; assign values to parameters

config_version=5

[application]

config/name="Trash Track"
run/main_scene="res://Main/Main.tscn"
config/features=PackedStringArray("4.2", "Forward Plus")
config/icon="res://Main/icon.svg"

[input]

p0_move_left={
"deadzone": 0.5,
"events": [Object(InputEventJoypadMotion,"resource_local_to_scene":false,"resource_name":"","device":0,"axis":0,"axis_value":-1.0,"script":null)
]
}
p0_move_right={
"deadzone": 0.5,
"events": [Object(InputEventJoypadMotion,"resource_local_to_scene":false,"resource_name":"","device":0,"axis":0,"axis_value":1.0,"script":null)
]
}
p0_move_up={
"deadzone": 0.5,
"events": [Object(InputEventJoypadMotion,"resource_local_to_scene":false,"resource_name":"","device":0,"axis":1,"axis_value":-1.0,"script":null)
]
}
p0_move_down={
"deadzone": 0.5,
"events": [Object(InputEventJoypadMotion,"resource_local_to_scene":false,"resource_name":"","device":0,"axis":1,"axis_value":1.0,"script":null)
]
}
p1_move_left={
"deadzone": 0.5,
"events": [Object(InputEventJoypadMotion,"resource_local_to_scene":false,"resource_name":"","device":1,"axis":0,"axis_value":-1.0,"script":null)
]
}
p1_move_right={
"deadzone": 0.5,
"events": [Object(InputEventJoypadMotion,"resource_local_to_scene":false,"resource_name":"","device":1,"axis":0,"axis_value":1.0,"script":null)
]
}
p1_move_up={
"deadzone": 0.5,
"events": [Object(InputEventJoypadMotion,"resource_local_to_scene":false,"resource_name":"","device":1,"axis":1,"axis_value":-1.0,"script":null)
]
}
p1_move_down={
"deadzone": 0.5,
"events": [Object(InputEventJoypadMotion,"resource_local_to_scene":false,"resource_name":"","device":1,"axis":1,"axis_value":1.0,"script":null)
]
}
p2_move_left={
"deadzone": 0.5,
"events": [Object(InputEventJoypadMotion,"resource_local_to_scene":false,"resource_name":"","device":2,"axis":0,"axis_value":-1.0,"script":null)
]
}
p2_move_right={
"deadzone": 0.5,
"events": [Object(InputEventJoypadMotion,"resource_local_to_scene":false,"resource_name":"","device":2,"axis":0,"axis_value":1.0,"script":null)
]
}
p2_move_up={
"deadzone": 0.5,
"events": [Object(InputEventJoypadMotion,"resource_local_to_scene":false,"resource_name":"","device":2,"axis":1,"axis_value":-1.0,"script":null)
]
}
p2_move_down={
"deadzone": 0.5,
"events": [Object(InputEventJoypadMotion,"resource_local_to_scene":false,"resource_name":"","device":2,"axis":1,"axis_value":1.0,"script":null)
]
}
p3_move_left={
"deadzone": 0.5,
"events": [Object(InputEventJoypadMotion,"resource_local_to_scene":false,"resource_name":"","device":3,"axis":0,"axis_value":-1.0,"script":null)
]
}
p3_move_right={
"deadzone": 0.5,
"events": [Object(InputEventJoypadMotion,"resource_local_to_scene":false,"resource_name":"","device":3,"axis":0,"axis_value":1.0,"script":null)
]
}
p3_move_up={
"deadzone": 0.5,
"events": [Object(InputEventJoypadMotion,"resource_local_to_scene":false,"resource_name":"","device":3,"axis":1,"axis_value":-1.0,"script":null)
]
}
p3_move_down={
"deadzone": 0.5,
"events": [Object(InputEventJoypadMotion,"resource_local_to_scene":false,"resource_name":"","device":3,"axis":1,"axis_value":1.0,"script":null)
]
}
p0_spawn={
"deadzone": 0.5,
"events": [Object(InputEventJoypadButton,"resource_local_to_scene":false,"resource_name":"","device":0,"button_index":6,"pressure":0.0,"pressed":true,"script":null)
]
}
p1_spawn={
"deadzone": 0.5,
"events": [Object(InputEventJoypadButton,"resource_local_to_scene":false,"resource_name":"","device":1,"button_index":6,"pressure":0.0,"pressed":true,"script":null)
]
}
p2_spawn={
"deadzone": 0.5,
"events": [Object(InputEventJoypadButton,"resource_local_to_scene":false,"resource_name":"","device":2,"button_index":6,"pressure":0.0,"pressed":true,"script":null)
]
}
p3_spawn={
"deadzone": 0.5,
"events": [Object(InputEventJoypadButton,"resource_local_to_scene":false,"resource_name":"","device":3,"button_index":6,"pressure":0.0,"pressed":true,"script":null)
]
}

[rendering]

renderer/rendering_method="gl_compatibility"
