[gd_scene load_steps=3 format=3 uid="uid://bi88d6kmjdm5b"]

[ext_resource type="Script" path="res://Trash/Trash.gd" id="1_k60kv"]

[sub_resource type="CircleShape2D" id="CircleShape2D_yafsy"]
radius = 18.4391

[node name="Trash" type="StaticBody2D"]
script = ExtResource("1_k60kv")

[node name="CollisionShape2D" type="CollisionShape2D" parent="."]
shape = SubResource("CircleShape2D_yafsy")

[node name="Polygon2D" type="Polygon2D" parent="."]
color = Color(0.921569, 0.407843, 0.301961, 1)
polygon = PackedVector2Array(-9, -16, 1, -9, 8, -16, 15, -6, 5, 5, 16, 10, -1, 17, -15, 12, -9, -3, -14, -8)
