[gd_scene load_steps=2 format=3 uid="uid://d2j5pld7vemqo"]

[ext_resource type="Script" path="res://Player/Player.gd" id="1_qlto4"]

[node name="Player" type="PanelContainer"]
offset_right = 63.0
offset_bottom = 50.0
size_flags_horizontal = 3
script = ExtResource("1_qlto4")

[node name="VBox" type="VBoxContainer" parent="."]
layout_mode = 2

[node name="Title" type="Label" parent="VBox"]
layout_mode = 2
text = "Player X"

[node name="ScoreUI" type="Label" parent="VBox"]
layout_mode = 2
text = "Score: "
